<svg xmlns="http://www.w3.org/2000/svg" width="375.027" height="31.07" viewBox="0 0 375.027 31.07">
  <path id="BKG_Layer2" d="M0,.587C30.917-.947,72.286.208,122.964,7.876,255.282,27.9,375.027,20.725,375.027,20.725V31.07H0Z" transform="translate(375.027 31.07) rotate(180)" fill="#fb739c" opacity="0.7"/>
</svg>
