<svg xmlns="http://www.w3.org/2000/svg" width="201" height="178" viewBox="0 0 201 178">
  <g id="Answer" transform="translate(-87 -441)">
    <ellipse id="Ellipse_350" data-name="Ellipse 350" cx="100.5" cy="12" rx="100.5" ry="12" transform="translate(87 595)" fill="#eb749c" opacity="0.5"/>
    <g id="Icon_Angry" transform="translate(109 446)">
      <ellipse id="Ellipse_5" data-name="Ellipse 5" cx="78.76" cy="78.76" rx="78.76" ry="78.76" fill="#ff646c" stroke="#d3535f" stroke-miterlimit="10" stroke-width="10"/>
      <path id="Path_147" data-name="Path 147" d="M184.2,61.293a33.828,33.828,0,0,0-32.028,22.382,2.919,2.919,0,1,0,5.509,1.934,28.267,28.267,0,0,1,53.035,0,2.918,2.918,0,1,0,5.507-1.934A33.826,33.826,0,0,0,184.2,61.293Z" transform="translate(-104.057 11.854)" fill="#891a2a"/>
      <path id="Path_148" data-name="Path 148" d="M158.6,47.058a4.7,4.7,0,0,0-1.331-.192,4.637,4.637,0,0,0-1.32.192h0c-3.012.883-5.28,4.729-5.28,9.343v7.63c0,5.267,2.956,9.535,6.6,9.535s6.6-4.268,6.6-9.535V56.4C163.87,51.793,161.61,47.949,158.6,47.058Z" transform="translate(-106.233 -11.731)" fill="#891a2a"/>
      <path id="Path_149" data-name="Path 149" d="M182,48.494a5.282,5.282,0,0,0-3.689-1.628,4.624,4.624,0,0,0-1.32.192h0c-3.014.883-5.28,4.729-5.28,9.343v7.63c0,5.267,2.954,9.535,6.6,9.535s6.6-4.268,6.6-9.535V56.4A11.135,11.135,0,0,0,182,48.494Z" transform="translate(-71.832 -11.731)" fill="#891a2a"/>
      <path id="Path_150" data-name="Path 150" d="M179.261,58.2a44.344,44.344,0,0,1-10.579-1.333,2.635,2.635,0,0,1,1.386-5.085c.105.029,10.579,2.806,17.5-.35A46.066,46.066,0,0,0,199.7,43.373a2.635,2.635,0,0,1,3.726,3.728,50.561,50.561,0,0,1-13.672,9.129A25.621,25.621,0,0,1,179.261,58.2Z" transform="translate(-79.958 -18.698)" fill="#891a2a"/>
      <path id="Path_151" data-name="Path 151" d="M171.694,58.2A25.628,25.628,0,0,1,161.2,56.23,50.467,50.467,0,0,1,147.53,47.1a2.634,2.634,0,0,1,3.723-3.728,46.119,46.119,0,0,0,12.131,8.062c6.927,3.156,17.4.379,17.5.35a2.635,2.635,0,0,1,1.386,5.085A44.343,44.343,0,0,1,171.694,58.2Z" transform="translate(-112.626 -18.698)" fill="#891a2a"/>
    </g>
  </g>
</svg>
