<svg xmlns="http://www.w3.org/2000/svg" width="23.985" height="24" viewBox="0 0 23.985 24">
  <path id="Icon_material-refresh" data-name="Icon material-refresh" d="M26.475,9.525A12,12,0,1,0,29.6,21h-3.12A9,9,0,1,1,18,9a8.872,8.872,0,0,1,6.33,2.67L19.5,16.5H30V6Z" transform="translate(-6.015 -6)" fill="#e14672"/>
</svg>
